[gd_resource type="VisualShader" load_steps=7 format=3 uid="uid://0ijceipblevi"]

[ext_resource type="Texture2D" uid="uid://bhfc6473g2x0j" path="res://Escenes_Blender/textures/EmisionBake4K.jpg" id="1_3ygtp"]

[sub_resource type="VisualShaderNodeInput" id="VisualShaderNodeInput_78gw7"]
input_name = "fragcoord"

[sub_resource type="VisualShaderNodeVectorOp" id="VisualShaderNodeVectorOp_ek0q6"]
default_input_values = [0, Quaternion(0, 0, 0, 0), 1, Quaternion(1, 0, 0, 0)]
op_type = 2
operator = 11

[sub_resource type="VisualShaderNodeInput" id="VisualShaderNodeInput_58ssq"]
input_name = "uv"

[sub_resource type="VisualShaderNodeFloatFunc" id="VisualShaderNodeFloatFunc_a7v0d"]
function = 31

[sub_resource type="VisualShaderNodeTexture" id="VisualShaderNodeTexture_ugi36"]
texture = ExtResource("1_3ygtp")

[resource]
code = "shader_type spatial;
render_mode blend_mix, depth_draw_opaque, cull_back, diffuse_lambert, specular_schlick_ggx;

uniform sampler2D tex_frg_7;



void fragment() {
// Input:4
	vec2 n_out4p0 = UV;


// Texture2D:7
	vec4 n_out7p0 = texture(tex_frg_7, n_out4p0);


// Output:0
	ALBEDO = vec3(n_out7p0.xyz);
	METALLIC = n_out7p0.x;
	ROUGHNESS = n_out7p0.x;
	EMISSION = vec3(n_out7p0.xyz);


}
"
nodes/fragment/0/position = Vector2(660, 140)
nodes/fragment/2/node = SubResource("VisualShaderNodeInput_78gw7")
nodes/fragment/2/position = Vector2(-360, 600)
nodes/fragment/3/node = SubResource("VisualShaderNodeVectorOp_ek0q6")
nodes/fragment/3/position = Vector2(180, 320)
nodes/fragment/4/node = SubResource("VisualShaderNodeInput_58ssq")
nodes/fragment/4/position = Vector2(-580, 220)
nodes/fragment/6/node = SubResource("VisualShaderNodeFloatFunc_a7v0d")
nodes/fragment/6/position = Vector2(-240, 440)
nodes/fragment/7/node = SubResource("VisualShaderNodeTexture_ugi36")
nodes/fragment/7/position = Vector2(-80, 100)
nodes/fragment/connections = PackedInt32Array(4, 0, 6, 0, 4, 0, 7, 0, 7, 0, 0, 0, 7, 0, 3, 0, 7, 0, 0, 2, 7, 0, 0, 3, 7, 0, 0, 5)
